{
  "prepare_queue": {
    "installed": [],
    "uninstalled": []
  },
  "config_munge": {
    "files": {}
  },
  "installed_plugins": {
    "com-badrit-base64": {
      "PACKAGE_NAME": "io.starter.esselworlddev"
    },
    "com-darryncampbell-cordova-plugin-intent": {
      "PACKAGE_NAME": "io.starter.esselworlddev"
    },
    "cordova-plugin-actionsheet": {
      "PACKAGE_NAME": "io.starter.esselworlddev"
    },
    "cordova-plugin-aes256-encryption": {
      "PACKAGE_NAME": "io.starter.esselworlddev"
    },
    "cordova-plugin-appavailability": {
      "PACKAGE_NAME": "io.starter.esselworlddev"
    },
    "cordova-plugin-camera": {
      "PACKAGE_NAME": "io.starter.esselworlddev"
    },
    "cordova-plugin-device": {
      "PACKAGE_NAME": "io.starter.esselworlddev"
    },
    "cordova-plugin-geolocation": {
      "PACKAGE_NAME": "io.starter.esselworlddev"
    },
    "cordova-plugin-googlemaps": {
      "PLAY_SERVICES_VERSION": "15.0.1",
      "ANDROID_SUPPORT_V4_VERSION": "27.+",
      "PACKAGE_NAME": "io.starter.esselworlddev"
    },
    "cordova-plugin-inappbrowser": {
      "PACKAGE_NAME": "io.starter.esselworlddev"
    },
    "cordova-plugin-ionic-keyboard": {
      "PACKAGE_NAME": "io.starter.esselworlddev"
    },
    "cordova-plugin-ionic-webview": {
      "ANDROID_SUPPORT_ANNOTATIONS_VERSION": "27.+",
      "PACKAGE_NAME": "io.starter.esselworlddev"
    },
    "cordova-plugin-network-information": {
      "PACKAGE_NAME": "io.starter.esselworlddev"
    },
    "cordova-plugin-request-location-accuracy": {
      "PACKAGE_NAME": "io.starter.esselworlddev"
    },
    "cordova-plugin-splashscreen": {
      "PACKAGE_NAME": "io.starter.esselworlddev"
    },
    "cordova-plugin-statusbar": {
      "PACKAGE_NAME": "io.starter.esselworlddev"
    },
    "cordova-plugin-telerik-imagepicker": {
      "PACKAGE_NAME": "io.starter.esselworlddev"
    },
    "cordova-plugin-whitelist": {
      "PACKAGE_NAME": "io.starter.esselworlddev"
    },
    "cordova-plugin-x-socialsharing": {
      "ANDROID_SUPPORT_V4_VERSION": "24.1.1+",
      "PACKAGE_NAME": "io.starter.esselworlddev"
    },
    "cordova-plugin-youtube-video-player": {
      "PACKAGE_NAME": "io.starter.esselworlddev"
    },
    "cordova.plugins.diagnostic": {
      "ANDROID_SUPPORT_VERSION": "28.+",
      "PACKAGE_NAME": "io.starter.esselworlddev"
    },
    "onesignal-cordova-plugin": {
      "PACKAGE_NAME": "io.starter.esselworlddev"
    },
    "uk.co.workingedge.phonegap.plugin.launchnavigator": {
      "OKHTTP_VERSION": "3.+",
      "PACKAGE_NAME": "io.starter.esselworlddev"
    }
  },
  "dependent_plugins": {
    "cordova-plugin-dialogs": {
      "PACKAGE_NAME": "io.starter.esselworlddev"
    },
    "es6-promise-plugin": {
      "PACKAGE_NAME": "io.starter.esselworlddev"
    }
  }
}