{
  "cordova-plugin-whitelist": {
    "source": {
      "type": "registry",
      "id": "cordova-plugin-whitelist@^1.3.3"
    },
    "is_top_level": true,
    "variables": {}
  },
  "cordova-plugin-statusbar": {
    "source": {
      "type": "registry",
      "id": "cordova-plugin-statusbar@^2.4.2"
    },
    "is_top_level": true,
    "variables": {}
  },
  "cordova-plugin-device": {
    "source": {
      "type": "registry",
      "id": "cordova-plugin-device@^2.0.2"
    },
    "is_top_level": true,
    "variables": {}
  },
  "cordova-plugin-splashscreen": {
    "source": {
      "type": "registry",
      "id": "cordova-plugin-splashscreen@^5.0.2"
    },
    "is_top_level": true,
    "variables": {}
  },
  "cordova-plugin-ionic-webview": {
    "source": {
      "type": "registry",
      "id": "cordova-plugin-ionic-webview@^2.4.1"
    },
    "is_top_level": true,
    "variables": {
      "ANDROID_SUPPORT_ANNOTATIONS_VERSION": "27.+"
    }
  },
  "cordova-plugin-ionic-keyboard": {
    "source": {
      "type": "registry",
      "id": "cordova-plugin-ionic-keyboard@^2.1.3"
    },
    "is_top_level": true,
    "variables": {}
  },
  "cordova-plugin-actionsheet": {
    "source": {
      "type": "registry",
      "id": "cordova-plugin-actionsheet@^2.3.3"
    },
    "is_top_level": true,
    "variables": {}
  },
  "cordova-plugin-geolocation": {
    "source": {
      "type": "registry",
      "id": "cordova-plugin-geolocation@^4.0.1"
    },
    "is_top_level": true,
    "variables": {}
  },
  "cordova-plugin-network-information": {
    "source": {
      "type": "registry",
      "id": "cordova-plugin-network-information@^2.0.1"
    },
    "is_top_level": true,
    "variables": {}
  },
  "cordova.plugins.diagnostic": {
    "source": {
      "type": "registry",
      "id": "cordova.plugins.diagnostic@^4.0.12"
    },
    "is_top_level": true,
    "variables": {
      "ANDROID_SUPPORT_VERSION": "28.+"
    }
  },
  "cordova-plugin-request-location-accuracy": {
    "source": {
      "type": "registry",
      "id": "cordova-plugin-request-location-accuracy@^2.2.3"
    },
    "is_top_level": true,
    "variables": {}
  },
  "uk.co.workingedge.phonegap.plugin.launchnavigator": {
    "source": {
      "type": "registry",
      "id": "uk.co.workingedge.phonegap.plugin.launchnavigator@^4.2.2"
    },
    "is_top_level": true,
    "variables": {
      "OKHTTP_VERSION": "3.+"
    }
  },
  "cordova-plugin-x-socialsharing": {
    "source": {
      "type": "registry",
      "id": "cordova-plugin-x-socialsharing@^5.4.4"
    },
    "is_top_level": true,
    "variables": {
      "ANDROID_SUPPORT_V4_VERSION": "24.1.1+"
    }
  },
  "es6-promise-plugin": {
    "source": {
      "type": "registry",
      "id": "es6-promise-plugin@^4.1.0"
    },
    "is_top_level": false,
    "variables": {}
  },
  "cordova-plugin-youtube-video-player": {
    "source": {
      "type": "registry",
      "id": "cordova-plugin-youtube-video-player@^2.3.0"
    },
    "is_top_level": true,
    "variables": {}
  },
  "cordova-plugin-camera": {
    "source": {
      "type": "registry",
      "id": "cordova-plugin-camera@^4.0.3"
    },
    "is_top_level": true,
    "variables": {}
  },
  "cordova-plugin-telerik-imagepicker": {
    "source": {
      "type": "registry",
      "id": "cordova-plugin-telerik-imagepicker@^2.3.2"
    },
    "is_top_level": true,
    "variables": {}
  },
  "com-badrit-base64": {
    "source": {
      "type": "registry",
      "id": "com-badrit-base64@^0.2.0"
    },
    "is_top_level": true,
    "variables": {}
  },
  "onesignal-cordova-plugin": {
    "source": {
      "type": "registry",
      "id": "onesignal-cordova-plugin@^2.4.6"
    },
    "is_top_level": true,
    "variables": {}
  },
  "cordova-plugin-appavailability": {
    "source": {
      "type": "registry",
      "id": "cordova-plugin-appavailability@^0.4.2"
    },
    "is_top_level": true,
    "variables": {}
  },
  "cordova-plugin-inappbrowser": {
    "source": {
      "type": "registry",
      "id": "cordova-plugin-inappbrowser@^3.0.0"
    },
    "is_top_level": true,
    "variables": {}
  },
  "com-darryncampbell-cordova-plugin-intent": {
    "source": {
      "type": "registry",
      "id": "com-darryncampbell-cordova-plugin-intent@^1.1.6"
    },
    "is_top_level": true,
    "variables": {}
  },
  "cordova-plugin-aes256-encryption": {
    "source": {
      "type": "registry",
      "id": "cordova-plugin-aes256-encryption@^1.2.0"
    },
    "is_top_level": true,
    "variables": {}
  },
  "cordova-plugin-googlemaps": {
    "source": {
      "type": "registry",
      "id": "cordova-plugin-googlemaps"
    },
    "is_top_level": true,
    "variables": {}
  }
}